module gitlab.com/scpcorp/ScPrime

go 1.16

require (
	github.com/VividCortex/ewma v1.2.0 // indirect
	github.com/aead/chacha20 v0.0.0-20180709150244-8b13a72661da
	github.com/cpuguy83/go-md2man/v2 v2.0.1 // indirect
	github.com/dchest/threefish v0.0.0-20120919164726-3ecf4c494abf
	github.com/getkin/kin-openapi v0.60.0 // indirect
	github.com/go-openapi/swag v0.19.15 // indirect
	github.com/go-sql-driver/mysql v1.6.0
	github.com/golang/snappy v0.0.4 // indirect
	github.com/hanwen/go-fuse/v2 v2.1.0
	github.com/inconshreveable/go-update v0.0.0-20160112193335-8152e7eb6ccf
	github.com/julienschmidt/httprouter v1.3.0
	github.com/klauspost/cpuid/v2 v2.0.9 // indirect
	github.com/klauspost/reedsolomon v1.9.14
	github.com/mailru/easyjson v0.7.7 // indirect
	github.com/mattn/go-runewidth v0.0.13 // indirect
	github.com/sasha-s/go-deadlock v0.3.1
	github.com/spf13/cobra v1.2.1
	github.com/spf13/viper v1.9.0
	github.com/starius/api2 v0.0.0-20210722161435-0d538c9482f4
	github.com/stretchr/testify v1.7.0
	github.com/syndtr/goleveldb v1.0.0
	github.com/vbauerster/mpb/v5 v5.4.0
	github.com/xtaci/smux v1.5.16
	gitlab.com/NebulousLabs/demotemutex v0.0.0-20151003192217-235395f71c40
	gitlab.com/NebulousLabs/encoding v0.0.0-20200604091946-456c3dc907fe
	gitlab.com/NebulousLabs/entropy-mnemonics v0.0.0-20181018051301-7532f67e3500
	gitlab.com/NebulousLabs/errors v0.0.0-20200929122200-06c536cf6975
	gitlab.com/NebulousLabs/fastrand v0.0.0-20181126182046-603482d69e40
	gitlab.com/NebulousLabs/go-upnp v0.0.0-20211002182029-11da932010b6
	gitlab.com/NebulousLabs/log v0.0.0-20210609172545-77f6775350e2
	gitlab.com/NebulousLabs/monitor v0.0.0-20191205095550-2b0fd3e1012a
	gitlab.com/NebulousLabs/ratelimit v0.0.0-20200811080431-99b8f0768b2e
	gitlab.com/NebulousLabs/siamux v0.0.0-20210824082138-a4ebafe4b9d9
	gitlab.com/NebulousLabs/threadgroup v0.0.0-20200608151952-38921fbef213
	gitlab.com/scpcorp/merkletree v0.0.0-20211011120743-60ebb43e826e
	gitlab.com/scpcorp/writeaheadlog v0.0.0-20200814111317-c404cb85e61f
	gitlab.com/zer0main/checkport v0.0.0-20211117123614-ea09614c7660
	gitlab.com/zer0main/eventsourcing v0.0.0-20210911223220-4432c7e50e57
	gitlab.com/zer0main/filestorage v0.0.0-20210603210652-2ee6eb57d4a3
	go.etcd.io/bbolt v1.3.6
	golang.org/x/crypto v0.0.0-20210921155107-089bfa567519
	golang.org/x/mod v0.5.1 // indirect
	golang.org/x/net v0.0.0-20211029224645-99673261e6eb // indirect
	golang.org/x/sys v0.0.0-20211029165221-6e7872819dc8 // indirect
	golang.org/x/term v0.0.0-20210927222741-03fcf44c2211 // indirect
	golang.org/x/text v0.3.7 // indirect
	golang.org/x/tools v0.1.7 // indirect
)
